memorytest/archivos test memoria/romproyecto/rom/simulation/qsim/rom.msim.vcd
$comment
	File created using the following command:
		vcd file rom.msim.vcd -direction
$end
$date
	Wed Oct 26 09:03:33 2022
$end
$version
	ModelSim Version 10.1d
$end
$timescale
	1ps
$end
$scope module rom_vlg_vec_tst $end
$var reg 8 ! address [7:0] $end
$var reg 1 " clock $end
$var wire 1 # data_out [7] $end
$var wire 1 $ data_out [6] $end
$var wire 1 % data_out [5] $end
$var wire 1 & data_out [4] $end
$var wire 1 ' data_out [3] $end
$var wire 1 ( data_out [2] $end
$var wire 1 ) data_out [1] $end
$var wire 1 * data_out [0] $end
$var wire 1 + sampler $end
$scope module i1 $end
$var wire 1 , gnd $end
$var wire 1 - vcc $end
$var wire 1 . unknown $end
$var tri1 1 / devclrn $end
$var tri1 1 0 devpor $end
$var tri1 1 1 devoe $end
$var wire 1 2 data_out[0]~output_o $end
$var wire 1 3 data_out[1]~output_o $end
$var wire 1 4 data_out[2]~output_o $end
$var wire 1 5 data_out[3]~output_o $end
$var wire 1 6 data_out[4]~output_o $end
$var wire 1 7 data_out[5]~output_o $end
$var wire 1 8 data_out[6]~output_o $end
$var wire 1 9 data_out[7]~output_o $end
$var wire 1 : clock~input_o $end
$var wire 1 ; address[4]~input_o $end
$var wire 1 < address[5]~input_o $end
$var wire 1 = address[6]~input_o $end
$var wire 1 > address[0]~input_o $end
$var wire 1 ? address[1]~input_o $end
$var wire 1 @ address[2]~input_o $end
$var wire 1 A address[3]~input_o $end
$var wire 1 B Mux6~2_combout $end
$var wire 1 C Mux6~3_combout $end
$var wire 1 D address[7]~input_o $end
$var wire 1 E data_out[1]~reg0_q $end
$var wire 1 F Mux2~2_combout $end
$var wire 1 G Mux5~0_combout $end
$var wire 1 H data_out[2]~reg0_q $end
$var wire 1 I Mux5~1_combout $end
$var wire 1 J Mux4~0_combout $end
$var wire 1 K data_out[3]~reg0_q $end
$var wire 1 L Mux3~0_combout $end
$var wire 1 M data_out[4]~reg0_q $end
$var wire 1 N Mux2~3_combout $end
$var wire 1 O Mux2~4_combout $end
$var wire 1 P data_out[5]~reg0_q $end
$var wire 1 Q Mux1~0_combout $end
$var wire 1 R data_out[6]~reg0_q $end
$var wire 1 S data_out[7]~reg0_q $end
$upscope $end
$upscope $end
$enddefinitions $end
#0
$dumpvars
b0 !
0"
0*
0)
0(
0'
0&
0%
0$
0#
x+
0,
1-
x.
1/
10
11
02
03
04
05
06
07
08
09
0:
0;
0<
0=
0>
0?
0@
0A
0B
1C
0D
0E
1F
1G
0H
1I
0J
0K
0L
0M
0N
0O
0P
0Q
0R
0S
$end
#500000
1"
1:
0+
1S
1H
1E
19
14
13
1#
1(
1)
#1000000
b1 !
0"
1>
0:
1+
1N
1J
0G
1O
#1500000
1"
1:
0+
1P
1K
0H
17
15
04
1%
1'
0(
#2000000
b11 !
b10 !
0"
0>
1?
0:
1+
0N
1L
0J
1G
0O
#2500000
1"
1:
0+
0P
1M
0K
1H
07
16
05
14
0%
1&
0'
1(
#3000000
b11 !
0"
1>
0:
1+
1Q
1N
0L
0G
1B
1O
0C
#3500000
1"
1:
0+
1R
1P
0M
0H
0E
18
17
06
04
03
1$
1%
0&
0(
0)
#4000000
b111 !
b101 !
b100 !
0"
0>
0?
1@
0:
1+
0Q
0I
#4500000
1"
1:
0+
0S
0R
09
08
0#
0$
#5000000
b101 !
0"
1>
0:
1+
0N
0O
#5500000
1"
1:
0+
0P
07
0%
#6000000
b111 !
b110 !
0"
0>
1?
0:
1+
#6500000
1"
1:
0+
#7000000
b111 !
0"
1>
0:
1+
#7500000
1"
1:
0+
#8000000
b1111 !
b1011 !
b1001 !
b1000 !
0"
0>
0?
0@
1A
0:
1+
#8500000
1"
1:
0+
#9000000
b1001 !
0"
1>
0:
1+
#9500000
1"
1:
0+
#10000000
b1011 !
b1010 !
0"
0>
1?
0:
1+
#10500000
1"
1:
0+
#11000000
b1011 !
0"
1>
0:
1+
#11500000
1"
1:
0+
#12000000
b1111 !
b1101 !
b1100 !
0"
0>
0?
1@
0:
1+
#12500000
1"
1:
0+
#13000000
b1101 !
0"
1>
0:
1+
#13500000
1"
1:
0+
#14000000
b1111 !
b1110 !
0"
0>
1?
0:
1+
#14500000
1"
1:
0+
#15000000
b1111 !
0"
1>
0:
1+
#15500000
1"
1:
0+
#16000000
b11111 !
b10111 !
b10011 !
b10001 !
b10000 !
0"
0>
0?
0@
0A
1;
0:
1+
1G
0B
1I
0F
0I
0G
#16500000
1"
1:
0+
#17000000
b10001 !
0"
1>
0:
1+
1N
#17500000
1"
1:
0+
#18000000
b10011 !
b10010 !
0"
0>
1?
0:
1+
0N
#18500000
1"
1:
0+
#19000000
b10011 !
0"
1>
0:
1+
1N
1B
#19500000
1"
1:
0+
